[

    {
        "name":"Dwa kozły",
        "number_brew": 9,
        "type": "Doppelbock",
        "blg": 17.5,
        "abv": 7.4,
        "ibu": 25,
        "ebc": 20.5,
        "kcal": 333,
        "ingredients": "woda; słody: pilzneński, monachijski I, karmelowy czerwony; chmiele: Tettnanger; drożdże: Saflager S-23",
        "date_brew": "29.11.2016",
        "date_bottling": "04.01.2017",
        "amount":{
            "500":35,
            "400":4,
            "330":2
        }
    }
]
