[
     {
        "name":"Pszaśne",
        "number_brew": 8,
        "type": "Weizen",
        "blg": 13,
        "abv": 5.7,
        "ibu": 15,
        "ebc": 13,
        "kcal": 240,
        "ingredients": "woda; słody: pszeniczny, pilzneński, monachijski I, karmelowy czerwony; chmiele: Tettnanger, Fuggles; drożdże: Safbrew WB-06",
        "date_brew": "10.04.2016",
        "date_bottling": "28.04.2016",
        "amount":{
            "500":1
        }
    },
    {
        "name":"Saison Weselny",
        "number_brew": 6,
        "type": "Saison",
        "blg": 16,
        "abv": 6.7,
        "ibu": 32,
        "ebc": 26,
        "kcal": 279,
        "ingredients": "woda; słody: pilzneński, wiedeński, przeniczny, carahell, caraaroma, acid; chmiele: Marynka, Saaz(cz); drożdże: Safbrew T-58",
        "date_brew": "14.08.2016",
        "date_bottling": "07.09.2016",
        "amount":{
            "500":17
        }
    },
    {
        "name":"Ciemne Szwagrowe",
        "number_brew": 7,
        "type": "Dunkelweizen",
        "blg": 12.8,
        "abv": 5,
        "ibu": 19,
        "ebc": 53,
        "kcal": 244, 
        "ingredients": "woda; słody: pszeniczny, pilzneński, monachijski I, carawheat; jęczmień palony; chmiele: Lubelski, Marynka; drożdże: Safbrew WB-06",
        "date_brew": "21.08.2016",
        "date_bottling": "07.09.2016",
        "amount":{
            "500":13
        }
    },
    {
        "name": "Czarny z puszki",
        "number_brew": 5,
        "type": "No Brand Brewkit",
        "blg": 10,
        "abv": 3.7,
        "ibu": "??",
        "ebc": 50,
        "kcal": 190,
        "ingredients": "woda; brewkit ciemnego piwa; chmiele: Tettnanger, East Goldings, Fuggles; drożdże: typu ale",
        "date_brew": "09.07.2016",
        "date_bottling": "26.07.2016",
        "amount": {
            "500": 10
        }
    }
]